…
    # Create a city_state variable
    homicides_data = 
      raw_data %>% 
      janitor::clean_names() %>% 
      mutate(city_state = str_c(city, ", ", state)) %>% 
      relocate(city_state, .after = reported_date)

    homicides_data

    ## # A tibble: 52,179 × 13
    ##    uid       repor…¹ city_…² victi…³ victi…⁴ victi…⁵ victi…⁶ victi…⁷ city  state
    ##    <chr>       <dbl> <chr>   <chr>   <chr>   <chr>   <chr>   <chr>   <chr> <chr>
    ##  1 Alb-0000…  2.01e7 Albuqu… GARCIA  JUAN    Hispan… 78      Male    Albu… NM   
    ##  2 Alb-0000…  2.01e7 Albuqu… MONTOYA CAMERON Hispan… 17      Male    Albu… NM   
    ##  3 Alb-0000…  2.01e7 Albuqu… SATTER… VIVIANA White   15      Female  Albu… NM   
    ##  4 Alb-0000…  2.01e7 Albuqu… MENDIO… CARLOS  Hispan… 32      Male    Albu… NM   
    ##  5 Alb-0000…  2.01e7 Albuqu… MULA    VIVIAN  White   72      Female  Albu… NM   
    ##  6 Alb-0000…  2.01e7 Albuqu… BOOK    GERALD… White   91      Female  Albu… NM   
    ##  7 Alb-0000…  2.01e7 Albuqu… MALDON… DAVID   Hispan… 52      Male    Albu… NM   
    ##  8 Alb-0000…  2.01e7 Albuqu… MALDON… CONNIE  Hispan… 52      Female  Albu… NM   
    ##  9 Alb-0000…  2.01e7 Albuqu… MARTIN… GUSTAVO White   56      Male    Albu… NM   
    ## 10 Alb-0000…  2.01e7 Albuqu… HERRERA ISRAEL  Hispan… 43      Male    Albu… NM   
    ## # … with 52,169 more rows, 3 more variables: lat <dbl>, lon <dbl>,
    ## #   disposition <chr>, and abbreviated variable names ¹​reported_date,
    ## #   ²​city_state, ³​victim_last, ⁴​victim_first, ⁵​victim_race, ⁶​victim_age,
    ## #   ⁷​victim_sex

    # Summarize within cities to obtain the total number of homicides and the number of unsolved homicides (those for which the disposition is “Closed without arrest” or “Open/No arrest”).
    unique(homicides_data$disposition)

    ## [1] "Closed without arrest" "Closed by arrest"      "Open/No arrest"

    homicides_data %>% 
      group_by(city_state) %>% 
      summarize(
        total_homicides = n(),
        unsolved_homicides = sum(disposition == "Closed without arrest") + sum(disposition == "Open/No arrest")
      ) 

    ## # A tibble: 51 × 3
    ##    city_state      total_homicides unsolved_homicides
    ##    <chr>                     <int>              <int>
    ##  1 Albuquerque, NM             378                146
    ##  2 Atlanta, GA                 973                373
    ##  3 Baltimore, MD              2827               1825
    ##  4 Baton Rouge, LA             424                196
    ##  5 Birmingham, AL              800                347
    ##  6 Boston, MA                  614                310
    ##  7 Buffalo, NY                 521                319
    ##  8 Charlotte, NC               687                206
    ##  9 Chicago, IL                5535               4073
    ## 10 Cincinnati, OH              694                309
    ## # … with 41 more rows
…
      city_prop_test
    }


    city_state_name = unique(homicides_data$city_state)

    city_prop_test = 
      expand_grid(city_state = city_state_name) %>% 
      mutate(test_results = map(city_state, proptest)) %>% 
      unnest(test_results)

    city_prop_test

    ## # A tibble: 51 × 4
    ##    city_state      estimate conf.low conf.high
    ##    <chr>              <dbl>    <dbl>     <dbl>
    ##  1 Albuquerque, NM    0.386    0.337     0.438
    ##  2 Atlanta, GA        0.383    0.353     0.415
    ##  3 Baltimore, MD      0.646    0.628     0.663
    ##  4 Baton Rouge, LA    0.462    0.414     0.511
    ##  5 Birmingham, AL     0.434    0.399     0.469
    ##  6 Boston, MA         0.505    0.465     0.545
    ##  7 Buffalo, NY        0.612    0.569     0.654
    ##  8 Charlotte, NC      0.300    0.266     0.336
    ##  9 Chicago, IL        0.736    0.724     0.747
    ## 10 Cincinnati, OH     0.445    0.408     0.483
    ## # … with 41 more rows
…
